…
# Total word counts per group
group_totals <- word_counts %>%
  group_by(price_group) %>%
  summarise(total = sum(n), .groups = "drop")

# Compute within-group proportions
word_props <- word_counts %>%
  left_join(group_totals, by = "price_group") %>%
  mutate(prop = n / total)

head(word_props,1000)
```

    ## # A tibble: 1,000 × 5
    ##    price_group word           n  total       prop
    ##    <chr>       <chr>      <int>  <int>      <dbl>
    ##  1 High price  aaa            6 129914 0.0000462 
    ##  2 High price  ability        1 129914 0.00000770
    ##  3 High price  abode          1 129914 0.00000770
    ##  4 High price  abounds        3 129914 0.0000231 
    ##  5 High price  absolute       4 129914 0.0000308 
    ##  6 High price  absolutely     4 129914 0.0000308 
    ##  7 High price  abundance      7 129914 0.0000539 
    ##  8 High price  abundant      18 129914 0.000139  
    ##  9 High price  acacia         1 129914 0.00000770
    ## 10 High price  academic      30 129914 0.000231  
    ## # ℹ 990 more rows
…
common_words %>%
  select(word, `High price`, `Low price`, min_prop) %>%
  slice_max(min_prop, n = 75)
```

    ## # A tibble: 75 × 4
    ##    word        `High price` `Low price` min_prop
    ##    <chr>              <dbl>       <dbl>    <dbl>
    ##  1 montreal         0.0184      0.0163   0.0163 
    ##  2 apartment        0.0160      0.0158   0.0158 
    ##  3 located          0.0135      0.0159   0.0135 
    ##  4 downtown         0.0105      0.0104   0.0104 
    ##  5 bedroom          0.0106      0.00927  0.00927
    ##  6 kitchen          0.00909     0.00896  0.00896
    ##  7 restaurants      0.00861     0.00860  0.00860
    ##  8 metro            0.00831     0.0136   0.00831
    ##  9 enjoy            0.00898     0.00809  0.00809
    ## 10 stay             0.00888     0.00744  0.00744
    ## # ℹ 65 more rows
…
``` r
airbnb_stop <- common_words %>%
  filter(min_prop >= 0.002) %>%
  arrange(desc(min_prop))

# Display removed words with their proportions in both groups
airbnb_stop %>%
  select(word, `High price`, `Low price`, min_prop)
```

    ## # A tibble: 78 × 4
    ##    word        `High price` `Low price` min_prop
    ##    <chr>              <dbl>       <dbl>    <dbl>
    ##  1 montreal         0.0184      0.0163   0.0163 
    ##  2 apartment        0.0160      0.0158   0.0158 
    ##  3 located          0.0135      0.0159   0.0135 
    ##  4 downtown         0.0105      0.0104   0.0104 
    ##  5 bedroom          0.0106      0.00927  0.00927
    ##  6 kitchen          0.00909     0.00896  0.00896
    ##  7 restaurants      0.00861     0.00860  0.00860
    ##  8 metro            0.00831     0.0136   0.00831
    ##  9 enjoy            0.00898     0.00809  0.00809
    ## 10 stay             0.00888     0.00744  0.00744
    ## # ℹ 68 more rows
…
    ## Rows after : 146190

### Constructing TF–IDF Text Features

``` r
# Compute TF–IDF for each listing
dtm_tfidf <- words_clean %>%
  count(id, word) %>%
  bind_tf_idf(word, id, n)

# Inspect first few TF–IDF entries
head(dtm_tfidf,1000)
```

    ## # A tibble: 1,000 × 6
    ##    id                 word             n     tf   idf tf_idf
    ##    <chr>              <chr>        <int>  <dbl> <dbl>  <dbl>
    ##  1 1.005025077628e+18 air              1 0.0323  2.89 0.0932
    ##  2 1.005025077628e+18 bath             1 0.0323  3.49 0.113 
    ##  3 1.005025077628e+18 bathtub          1 0.0323  4.32 0.139 
    ##  4 1.005025077628e+18 bedding          1 0.0323  3.73 0.120 
    ##  5 1.005025077628e+18 central          1 0.0323  3.12 0.101 
    ##  6 1.005025077628e+18 channels         1 0.0323  5.22 0.168 
    ##  7 1.005025077628e+18 coffee           1 0.0323  2.78 0.0897
    ##  8 1.005025077628e+18 complete         1 0.0323  4.21 0.136 
    ##  9 1.005025077628e+18 conditioning     1 0.0323  3.41 0.110 
    ## 10 1.005025077628e+18 cooking          1 0.0323  4.13 0.133 
    ## # ℹ 990 more rows

### Attach Price Labels to TF–IDF Features

``` r
dtm_tfidf_grouped <- dtm_tfidf %>%
  left_join(text_df %>% select(id, price_group), by = "id")

# Inspect the merged dataset
head(dtm_tfidf_grouped,40)
```

    ## # A tibble: 40 × 7
    ##    id                 word             n     tf   idf tf_idf price_group
    ##    <chr>              <chr>        <int>  <dbl> <dbl>  <dbl> <chr>      
    ##  1 1.005025077628e+18 air              1 0.0323  2.89 0.0932 Low price  
    ##  2 1.005025077628e+18 bath             1 0.0323  3.49 0.113  Low price  
    ##  3 1.005025077628e+18 bathtub          1 0.0323  4.32 0.139  Low price  
    ##  4 1.005025077628e+18 bedding          1 0.0323  3.73 0.120  Low price  
    ##  5 1.005025077628e+18 central          1 0.0323  3.12 0.101  Low price  
    ##  6 1.005025077628e+18 channels         1 0.0323  5.22 0.168  Low price  
    ##  7 1.005025077628e+18 coffee           1 0.0323  2.78 0.0897 Low price  
    ##  8 1.005025077628e+18 complete         1 0.0323  4.21 0.136  Low price  
    ##  9 1.005025077628e+18 conditioning     1 0.0323  3.41 0.110  Low price  
    ## 10 1.005025077628e+18 cooking          1 0.0323  4.13 0.133  Low price  
    ## # ℹ 30 more rows
…
